*** Life<FredkinCell> 9x15 ***

Generation = 0, Population = 13.
-0-------------
---0------0--0-
--0----0-------
--0--------0---
-----0---------
---------------
-------0-------
----------0--0-
---0-----------

Generation = 3, Population = 46.
0-22000-----0--
-2----0----0-0-
----1----1--0--
1----0-00-20---
00----0-00-0-0-
-010---0--11--0
----0-------00-
-0---0----0220-
0----------00--

Generation = 6, Population = 64.
--5-000--1-0---
12--1-1--220-10
0---2--212---1-
4-1-0101---0101
1-22-011---0---
001--0-100--101
0--00----1---1-
0--1---0-213--0
--10-0-----1---

Generation = 9, Population = 73.
---3-1---4010--
-3131-21052121-
--133-1-----01-
---3------3-132
12-30-----0-0-0
----01---0-1232
0-10110--10102-
--1102000---40-
02-1000-0004---

Generation = 12, Population = 64.
--6-2--2-412---
364---2-0-522-1
0--3--4-3-----0
-----2330--124-
2-4---3----3-0-
--15-202---1363
-11-1--0-114---
-1221--11--35-0
3351--0----7-0-

Generation = 15, Population = 65.
---6-302--42--2
--------385551-
-----14-4--0---
-1--23430--2-4-
3-54114--1-3-11
--4645-----4--6
22--4----2-7260
24232--22------
-68--4122-2-0-0

Generation = 18, Population = 45.
03763--3-6-----
-7---3--3-6662-
-22----3-4-----
--------0--33--
--5--1---------
-14--5--2---4--
2--251-0-2-----
2--32---23376--
--9----3-0-----

*** Life<FredkinCell> 2x18 ***

Generation = 0, Population = 12.
----00------------
0-0-0-0---000000--

Generation = 4, Population = 15.
11--22--11--------
0-2---11-12-22--3-

Generation = 8, Population = 17.
-32-64------11----
--2030531--1--0-52

Generation = 12, Population = 15.
-53-6-2-----55--10
-0---4-3-2---41--3

Generation = 16, Population = 16.
----85---12----15-
-4-1-4-3-252-654--

*** Life<FredkinCell> 15x21 ***

Generation = 0, Population = 14.
--0----------0-------
----0----------------
---------------------
---------------------
-------------0-------
---------------------
0--------------------
---------------------
0-00-0---------------
------0--------0-----
---------------------
--0------------------
---------------------
------0---0----------
---------------------

Generation = 4, Population = 46.
0-----1--0---0---0---
1---1---0------------
0-2----------0-------
---------------------
0--0-0---0---0---0---
----0-0--------1-----
--1-0----------------
--1------------------
204-2-10-0---1-------
--1---0----0-------0-
2--------------------
2-----0--------------
1-10-0---------------
--0---0-------00-----
---------------------

Generation = 8, Population = 46.
--112-----0----------
--2---0-----0--1-----
-------------0-------
--0------------------
-----2---------------
----4-0---0----------
--3---1-0----1-------
---------------------
-0822-3-2-11---------
0---1-20--1---1----0-
---------------------
--1-0-----1----------
-------------1-------
0-1---0-------22--1--
--32-0---------------

*** Life<FredkinCell> 6x6 ***

Generation = 0, Population = 5.
-----0
------
--0--0
----0-
-----0
------

Generation = 5, Population = 15.
02-30-
0-0--0
-2--1-
20-0--
----0-
-0---0

*** Life<FredkinCell> 4x4 ***

Generation = 0, Population = 5.
0--0
0--0
---0
----

Generation = 3, Population = 5.
--2-
--2-
2---
1-0-

Generation = 6, Population = 11.
-152
2150
50--
4--1

Generation = 9, Population = 5.
--8-
--8-
8---
7-0-

Generation = 12, Population = 11.
-1+2
21+0
+0--
+--1

Generation = 15, Population = 5.
--+-
--+-
+---
+-0-

Generation = 18, Population = 11.
-1+2
21+0
+0--
+--1

*** Life<FredkinCell> 7x6 ***

Generation = 0, Population = 12.
---0--
------
-00-00
0-----
---0-0
00----
--0-0-

Generation = 4, Population = 22.
-13031
21----
--4--2
--1-1-
-11-00
2-2-10
-102--

*** Life<FredkinCell> 10x17 ***

Generation = 0, Population = 42.
---------0-----00
-0--0--0--0000---
0-0---0----------
-0----0-------00-
-0-0----0-0-----0
--------------0--
--00---0---------
-00-----00--0--0-
---0--00------0-0
-00-------0-0--0-

Generation = 4, Population = 87.
0120-02-1-1311142
0--1010--02-02-00
1-231-11-23----10
-----1--11-20---2
-2-110---1----00-
--1-1--0--10-1-03
--01---2---0-----
142-2---2-11-3001
-030--1-0-000---0
1-1--1---3-10---0

Generation = 8, Population = 82.
-12---423-23--1-3
-0054----06--4-42
53-53-1-------1-2
1-1--5-3-324-----
-----0-21311--1-1
--3-3-41303001-1-
--4-3--4-430----0
36---1-2-215----1
12----1--2-20-2--
--5-030--3--02-12

Generation = 12, Population = 83.
--2---8-502----65
---7--5--4---6-66
5----013-3--2---3
--330-----3--3324
4313421-3--213-1-
-35-4-53-1---21-9
31--50342--421602
5-52-----45-----2
3---212---1-23-12
1---4---1-13--2--

Generation = 16, Population = 81.
01-0-2-3923-----7
-2-954---46436---
5-57---51-------3
2-35---83--43--3-
6-2-4-1-4414-5--1
145-4-----4-1--2-
---4--4--5--2-7-6
---431-44--62--03
4-442-3-4---4--3-
-3748---2---05-34

*** Life<FredkinCell> 12x22 ***

Generation = 0, Population = 127.
--00-0-0------0--0-000
0-0-0--0-00-000---0--0
0000--00---000---0--0-
--00--0-000-00-0-0-00-
0--0--0-0--0--000-0---
0-00--0-0----00--00--0
0--0-0----0---0-0-00--
000--0-000---0-00--00-
0--000-0-00-0--00-0-0-
-00------0---00--00000
--0--00-00-0--0-0--0-0
000-000-00-0-000-----0

Generation = 4, Population = 145.
0-02--0-01001-4----4--
--2--2001--022--1101--
-010030000-2-4-11-0---
-0--3-----20121-12----
2-1-3----0120---41--00
-1--1-1--10--21--21-30
2-12020-1-2--0211120--
-02-220---3010121---2-
-11-11-111-001100-20--
0--0003---11--2-12-21-
-0-002-02-02-3---2-21-
2----40----4212-01---4

Generation = 8, Population = 138.
-1-4--42--2---4214--1-
4--1-20--2--62---1-1-4
--30-42-22530-1-3-403-
2-1-3--3-1-1-----23--5
4021--3---1-052-4512-0
-2-23-31-11-131-1--0-2
-11---211222-2--2-----
204-4-20--322-24-004-5
2-22--05-3-4423---40--
-----27-0-12-46-----3-
-00044-13---04-2-40---
2-013--21-------423-34

Generation = 12, Population = 120.
1-28--4412-32-6-14571-
5-------6-----40-2-2--
13-034-----7--25-36-41
63-3-1--0-2-3-----4---
--6-40-32-36-----7----
-22---433-3--3-1152---
4-24--4---------4--1--
-2--62-421-2-0---12-3-
-52-43--25285------0--
1---0--1413--8-11--5--
-------2-203-532--23-1
43-3464----43-316-3-7-

*** Life<FredkinCell> 5x25 ***

Generation = 0, Population = 30.
0------0--0-00----------0
00------------000----0-0-
0-0-0-0-----0---0-0-00---
---0--------00------0----
0-------00----0----------

Generation = 4, Population = 48.
---1-------22----12--32--
4-0-11----010-21213-02---
----0-2300---0---0--0-1--
---0---011--02---0--2---0
----0013----1---1---30--0

Generation = 8, Population = 50.
-----1---2--2-44--2------
42---3-0-0---34-3--2--3-0
2-1---45420-4-------012-1
----11-----4-2-------01--
200-2-133-4--2---01-421-1

Generation = 12, Population = 68.
----35--5-134-5-32-1--6--
442154-2-0343-4332-3---3-
-1214-67-4-4---0--2--5--5
21--13-33--4-4-3--3--23-2
3220--23-3-034002-----1-2

Generation = 16, Population = 53.
-1----41-43-6-----2-2-822
65---6-6---4---4-35505-4-
6---60-9-6----2-----2---6
-3543------4155----2325--
5-4-42-5--5--82---3--5---

Generation = 20, Population = 64.
-3-5--8-56-7-------3-6-44
67447----1-6-7648-771-562
---2--8-4-574-6-2-6--9-3-
--94753--615377----45492-
5-66-45-9--24-3--------5-

*** Life<FredkinCell> 4x17 ***

Generation = 0, Population = 3.
-0---------------
--------0-------0
-----------------
-----------------

Generation = 5, Population = 18.
0-0---0-0-----0-0
---0---0-0---0---
0-0-0---------0--
-0-----0-0-----0-

*** Life<FredkinCell> 10x22 ***

Generation = 0, Population = 18.
--------------00------
-----------------0----
----------------------
---0--0---------------
---------0------------
----------0-----------
---------0-0-0----0---
-0----0---------------
-------------------0--
--0----0-----------00-

Generation = 3, Population = 100.
---0--0----01--3-200--
--0-00-0-0--000--00-0-
-0-0000------01-00-0--
0-00220----0-0000-----
---0000-------0----0--
0---0--0---0-0-00-000-
-00-0-010-0----1100--0
-02-100-10-----000----
00-0-00--10---0-0--101
1-1-1--1-100-0--0-2---

Generation = 6, Population = 108.
-------012232-2312-311
-00---000-211--------0
-----0-1--00012--00-0-
1-31-232-00-000----100
---0-1------12-2111--0
0-01----11--0--1120-31
---1--------1-2-13-1-0
1-201-1--1010-100-11--
-----1---2-1--12-0-4--
-310--1101-31-1031----

Generation = 9, Population = 104.
--0--01--33---3--3361-
-1-0---1-25--2----0---
0-----0-01-1--2----0--
-1-1-343010-10-0-00-30
-10----0---0--2-2413--
013----1-200-0011311-2
-10--2--0-21-254-40---
---1231-12-2---1---2-0
0--0010-03-2-0--0-1---
--133--1--3440--4-----

Generation = 12, Population = 112.
-011-3-0--45-13--4---3
01-0-231-361-30-123---
-2-0--11--1--421-31---
---23474-412--0-0-1-61
-4---210------5--413-1
12-402-2-33311122---42
------0--034--8---0---
31-1-411-2--20-40-421-
-0---2-0-40---3---1--3
-6---1---2-74--271413-

*** Life<FredkinCell> 6x17 ***

Generation = 0, Population = 20.
--0-----00-0-----
----------0--00--
--0--0--0---0----
-------------0---
0--------0----0--
00--0---0----0---

Generation = 5, Population = 48.
0---3---2-1-22-2-
--00---0--01031-3
2-3---41--022--02
2--0--00-1---2---
-000--01---10----
--12-100---0-0200

Generation = 10, Population = 54.
-2--4-13---13--3-
-----2-25-24-4224
4--3-24---043-0--
-2-142-21241-2321
-32--22-4--22---2
0----3-043-231--3

Generation = 15, Population = 61.
23-1--3-5---426-1
44-32353-52-2-4-7
42---355-13-5-1-4
4-33--3-4573-3---
-332-554-4-42-4-3
03--5832--4--64-8

*** Life<FredkinCell> 8x24 ***

Generation = 0, Population = 24.
------------------------
-0------0-00----------0-
-0--0------0-----------0
-------00----------0----
-------------00-------0-
-------000-----------0--
--00-----------0--------
---0------------------0-

Generation = 3, Population = 98.
0-0--000-0---0-----00-0-
-1-1-0-2--3021----011-0-
--2-0--001-10--0-0-0-111
020--123100---0---0-0-20
0--110-00000-1-0---0-002
0--2--2-1--1--0-00--00--
1-1021-0--00-0-00-0-0---
-1--01-1-10---0--0-01--0

Generation = 6, Population = 79.
1---201001--1-000--00-3-
--11--2--24-5-02-1-12-0-
--3---13---1-01----1-4--
-31-----2-03-1-0--0-0---
----1100---01------001-3
--0-0---23----11--1-----
-3-1--2-0-1--1---1----12
-2--1---0-1000--0-2---2-

Generation = 9, Population = 90.
11-130-00----------0-04-
--2-03-41---6-32--14-3-0
--3-0314-30-2---0---0-21
----0-2-21-6---12--11032
0-012-1--2---21-----1-2-
-1-211-224---2-4-3------
-6-23-22-0---211010-----
05-31-----20-0-0-0-1-2-0

Generation = 12, Population = 96.
22--4--1-1--4-0--10--051
31-4-64-22---26----4263-
--4--4-53-------11---434
-51111-55-37240---222-43
0--4-1-22-3---4----1-334
12--123--52-122534--2-3-
------3--13023---2-2--2-
-6--112--2--11---1-2--4-

Generation = 15, Population = 97.
-3-45--22-2-42---2-1016-
41-5-6772--4857-3--5--4-
3----4--63236-3--40--5-4
2---12-8-248-5-2--5--1--
3---3-3-22-1344-1-123---
-33--3333--4-55---322--2
-62--3--3-4-3--103---0--
3--341--4---1112--2----0

Generation = 18, Population = 96.
-44-8-23--23-31--3--0-6-
--56--8-5---96---3--3-5-
3-62--377453----3--44-54
-7-3-34--3592--3-2-53---
-3-6-143--34-5--2-43-6-6
----3463-63------5-331-2
4-234-3--4--4532-62--0-5
-6--5-4--3-112---4-51--1

*** Life<FredkinCell> 11x3 ***

Generation = 0, Population = 14.
0--
0--
00-
---
---
0--
0--
0-0
-00
00-
00-

Generation = 5, Population = 21.
320
10-
0-2
102
-1-
-1-
-1-
11-
4-1
0--
111

Generation = 10, Population = 11.
--3
---
-1-
---
--1
1-1
---
-2-
--2
1-0
-43

*** Life<FredkinCell> 3x11 ***

Generation = 0, Population = 8.
--00-000---
---------0-
-----00----

Generation = 3, Population = 15.
1-31----220
00--0-0-00-
-0---1---0-

Generation = 6, Population = 11.
414---2--33
---1-------
----1-1-1-2
