*** Life<ConwayCell> 31x29 ***

Generation = 0, Population = 1.
.............................
.............................
.............................
.............................
.............................
..*..........................
.............................
.............................
.............................
.............................
.............................
.............................
.............................
.............................
.............................
.............................
.............................
.............................
.............................
.............................
.............................
.............................
.............................
.............................
.............................
.............................
.............................
.............................
.............................
.............................
.............................

Generation = 2, Population = 0.
.............................
.............................
.............................
.............................
.............................
.............................
.............................
.............................
.............................
.............................
.............................
.............................
.............................
.............................
.............................
.............................
.............................
.............................
.............................
.............................
.............................
.............................
.............................
.............................
.............................
.............................
.............................
.............................
.............................
.............................
.............................

Generation = 4, Population = 0.
.............................
.............................
.............................
.............................
.............................
.............................
.............................
.............................
.............................
.............................
.............................
.............................
.............................
.............................
.............................
.............................
.............................
.............................
.............................
.............................
.............................
.............................
.............................
.............................
.............................
.............................
.............................
.............................
.............................
.............................
.............................

*** Life<ConwayCell> 4x34 ***

Generation = 0, Population = 72.
**..*.***.*....*..**.*...**.*.*.**
*..****.**.....*.*.*..***..*.*....
.*..**.*...****.*..*****.*.***.***
*.***.*.*.****..*.**.....****..*.*

Generation = 3, Population = 45.
..***....*....***....*.*******....
***..*..*.....**...........*.**...
*...*....*..*............**..*.*..
****...........***.**.*.**........

Generation = 6, Population = 21.
.*.**........**...................
*....*......*..*...........*......
*...*........**...........**......
.***......................**......

Generation = 9, Population = 11.
.............**...................
**..........*..*..................
*............**............**.....
..................................

Generation = 12, Population = 10.
.............**...................
**..........*..*..................
**...........**...................
..................................

Generation = 15, Population = 10.
.............**...................
**..........*..*..................
**...........**...................
..................................

Generation = 18, Population = 10.
.............**...................
**..........*..*..................
**...........**...................
..................................

Generation = 21, Population = 10.
.............**...................
**..........*..*..................
**...........**...................
..................................

Generation = 24, Population = 10.
.............**...................
**..........*..*..................
**...........**...................
..................................

*** Life<ConwayCell> 33x3 ***

Generation = 0, Population = 52.
***
**.
...
..*
.**
***
.*.
...
**.
***
*..
***
*..
.**
*.*
.**
...
*.*
...
***
.*.
**.
*.*
.**
.*.
**.
...
**.
**.
*..
**.
.**
...

Generation = 4, Population = 17.
...
.*.
*..
*..
**.
...
...
...
***
...
...
...
...
.*.
*..
*..
**.
*..
*..
...
...
...
...
...
...
...
...
...
...
...
...
.*.
.*.

Generation = 8, Population = 7.
...
...
...
...
...
...
...
...
***
...
...
...
...
...
...
...
**.
**.
...
...
...
...
...
...
...
...
...
...
...
...
...
...
...

Generation = 12, Population = 7.
...
...
...
...
...
...
...
...
***
...
...
...
...
...
...
...
**.
**.
...
...
...
...
...
...
...
...
...
...
...
...
...
...
...

Generation = 16, Population = 7.
...
...
...
...
...
...
...
...
***
...
...
...
...
...
...
...
**.
**.
...
...
...
...
...
...
...
...
...
...
...
...
...
...
...

*** Life<ConwayCell> 31x10 ***

Generation = 0, Population = 9.
.*........
*.........
..........
..........
..........
..........
..........
.*........
..........
.....*.*..
..........
..........
..........
.........*
..........
..........
..*.......
..........
..........
*.........
..........
..........
..........
..........
..........
..........
..........
*.........
..........
..........
..........

Generation = 3, Population = 0.
..........
..........
..........
..........
..........
..........
..........
..........
..........
..........
..........
..........
..........
..........
..........
..........
..........
..........
..........
..........
..........
..........
..........
..........
..........
..........
..........
..........
..........
..........
..........

Generation = 6, Population = 0.
..........
..........
..........
..........
..........
..........
..........
..........
..........
..........
..........
..........
..........
..........
..........
..........
..........
..........
..........
..........
..........
..........
..........
..........
..........
..........
..........
..........
..........
..........
..........

*** Life<ConwayCell> 26x31 ***

Generation = 0, Population = 111.
..*......*.................*..*
.........*...*.*......*.**.....
.**....*...........*...**......
*.........*...**.....*...*.....
....*.......*....*...*.........
.....*.......**.....*..........
...........*..........**.....*.
......*........*.....*....*....
................*.*.........*..
*.......*..*.*....**.......*...
...*.........*...........*.....
.*....................*..*.....
.....*..................**....*
..*....................*...*...
.*............*......*.........
.*..*.......*..................
...*......*.*......*...........
...*......*.........**...*.....
***...............*............
..*...............*........*...
...*..***.............*........
...*...*.*........*.........*..
.................*.*...........
**..*..*....*..*........*......
..**........*....**...*....*...
..........*.................*..

Generation = 3, Population = 67.
...............................
***...................***......
***..................**.*......
....................*.**.......
.....................*.........
.............**................
.............**.......*........
..................*...*........
.................*.**..........
.................*.*...........
..................*.......*....
.........................*.*...
.......................**......
.......................**......
...............................
.**............................
...................**..........
***...............*..*.........
.....*.*...........**..........
..*.**.**......................
...*.**.*......................
..**...*.......................
..*............................
.*.*...........................
.*.*...........................
..*............................

Generation = 6, Population = 63.
.*....................**.......
*.*.....................*......
*.*.....................*......
.*..................*..........
.....................*.*.......
.............**................
.............**................
..................*............
.................*.**..........
.................*.**..........
..................**.....*.....
..........................**...
.......................*.......
.......................**......
...............................
...............................
..**...............**..........
.*..*.............*..*.........
......****.........**..........
.*.......*.....................
.*......**.....................
.**....*.......................
**..*.*........................
**.............................
**.............................
..*............................

Generation = 9, Population = 51.
.*.............................
*.*............................
*.*............................
.*.............................
...............................
.............**................
.............**................
..................**...........
.................*.**..........
.................*..*..........
..................***..........
..................**.....*.....
.......................*.*.....
.......................*.*.....
...............................
...............................
..**...............**..........
..**..............*..*.........
......**.**........**..........
......**..*....................
......*...*....................
.......*.*.....................
........*......................
...............................
.**............................
...............................

Generation = 12, Population = 50.
.*.............................
*.*............................
*.*............................
.*.............................
...............................
.............**................
.............**...***..........
..................*..*.........
................*..............
................*.....*........
................*....*.........
...................*...........
...............................
...............................
...............................
...............................
..**....*..........**..........
..**..*..**.......*..*.........
......*...**.......**..........
.....*.....**..................
..........**...................
.......****....................
........**.....................
........*......................
...............................
...............................

*** Life<ConwayCell> 3x5 ***

Generation = 0, Population = 7.
*.*..
***.*
....*

Generation = 5, Population = 0.
.....
.....
.....

*** Life<ConwayCell> 4x30 ***

Generation = 0, Population = 53.
*.....**.*.****....*..***..***
*...*.*..*..*.....*.*..*.**.*.
..*.***.*...*.**.*..*..*..****
.*..*..***.*.....**..*.*.*...*

Generation = 4, Population = 49.
...*****...........******...*.
...**.....**.*.*.............*
...**.*.....**.*..****.*.*****
.....*****.***......**.*.*.**.

*** Life<ConwayCell> 33x3 ***

Generation = 0, Population = 39.
*.*
.**
.*.
...
**.
..*
.*.
*..
..*
.*.
*.*
.*.
**.
.**
.*.
.*.
*..
...
*..
***
.*.
**.
*..
.*.
..*
...
.**
...
*..
*..
*.*
*..
...

Generation = 4, Population = 15.
...
.**
**.
...
.*.
...
...
...
...
.*.
.*.
...
...
...
*..
**.
...
...
...
**.
...
...
..*
**.
...
...
...
...
...
...
...
...
...

*** Life<ConwayCell> 18x5 ***

Generation = 0, Population = 25.
....*
....*
.*..*
.**..
**..*
..*.*
...*.
.....
*..*.
.**..
.....
..*..
.*.*.
**.*.
.....
*....
..*..
....*

Generation = 3, Population = 16.
.....
.....
..***
.....
...*.
.*.*.
.....
.....
.***.
.*.*.
..***
.....
.....
**...
.....
.....
.....
.....

Generation = 6, Population = 13.
.....
...*.
..**.
.....
.**..
.....
.....
.....
.**..
.*..*
.*...
..*.*
...*.
.....
.....
.....
.....
.....

Generation = 9, Population = 18.
.....
..**.
....*
.....
.....
.....
.....
.*...
***..
*..*.
*****
.*..*
..**.
.....
.....
.....
.....
.....

Generation = 12, Population = 11.
.....
.....
.....
.....
.....
.....
.*...
*.**.
*..*.
.*...
...**
..*.*
.....
.....
.....
.....
.....
.....

Generation = 15, Population = 6.
.....
.....
.....
.....
.....
..*..
.***.
.*.*.
.....
.....
.....
.....
.....
.....
.....
.....
.....
.....

Generation = 18, Population = 9.
.....
.....
.....
.....
..*..
**.**
**.**
.....
.....
.....
.....
.....
.....
.....
.....
.....
.....
.....

*** Life<ConwayCell> 3x5 ***

Generation = 0, Population = 7.
...**
..*..
***.*

Generation = 5, Population = 4.
.....
.*.*.
.*.*.

Generation = 10, Population = 0.
.....
.....
.....

Generation = 15, Population = 0.
.....
.....
.....

Generation = 20, Population = 0.
.....
.....
.....
