*** Life<FredkinCell> 8x13 ***

Generation = 0, Population = 51.
-------------
-0000-00000--
--00---00--0-
-000-0-0-0000
--000000-0-00
---00-0--00--
-0-000--00-00
-000---0-00--

Generation = 9, Population = 53.
0-2------3-12
31----4-3--00
54-41433-6372
1421--2------
3--33-72-140-
222-----0-40-
3-1-6-52----2
2--0--513---3

Generation = 18, Population = 43.
465--46--514-
6-3-46-4-4-42
+6---73-1+-+-
-83--2--1----
-1--98+-1-9--
--------4----
7----9-4-----
-----39-644-5

Generation = 27, Population = 50.
-7-754+-85-5-
8--3--+-+5--5
-+--6--+1+---
---6-3----645
---3+++-45-6-
---47--+8-+-8
--89+-+5--87-
--4-55+-+---6

*** Life<FredkinCell> 8x18 ***

Generation = 0, Population = 75.
------------------
---0---0-0-0000--0
----000-0000---000
---00--00000000-0-
-0-0000-0000-00000
-0000-00-00000000-
--000000-00--00---
-000--00-0--0---0-

Generation = 8, Population = 68.
--021120-20--23---
-4---22--404-0-30-
-222-----2----22-2
1-3-52-----2--22--
-2-5--210----2353-
21--3-31-3-4-1---6
0--1----22--14-32-
15---1-44-1--4-50-

Generation = 16, Population = 70.
----235-3213---153
3-633642--475-5-15
2--666---45-43---5
---1785-15+-35-5--
--28-------22----5
---55---353622--1-
2--1------135-----
2-5--2-8--2137-9--

*** Life<FredkinCell> 8x17 ***

Generation = 0, Population = 29.
-----------------
----00---00-00---
--0-0-000--0-00--
---0-------------
---0-0---000----0
-0------0--000---
--------0--------
----0----------0-

*** Life<FredkinCell> 13x15 ***

Generation = 0, Population = 93.
---------------
--0---00--00-0-
-00-0---0--00-0
--00-000--0----
-00000--0-000-0
-0-----00-00-00
-00--00-0--00-0
--0--0-00---00-
-0-0-0000-00--0
-000---00-0000-
---0-00000-00--
-0-0--0-000-0--
-0--000000-000-

Generation = 9, Population = 106.
0333-10-0-32-0-
5-34--7--1--2--
55---1----6-4-0
-0--3--4--3-213
2-4100157--21--
2--4--15------4
--224--15--0-0-
----435----6-35
1-34313-2---060
33-52-2--3-14--
103-0--321---02
2443552134-43--
--652-32441-42-

Generation = 18, Population = 109.
--74-82--1753-3
7-5-22-964619-1
-7--511-359--45
2------63+63744
718-3-3---2423-
4-4-2--+332----
54-56--66-4----
---765--2--7--8
-46-65----21--3
5-26-795--7--53
5---1-44-3-2715
5-96--6567--3-2
4-9-32---85-63-

Generation = 27, Population = 106.
3-7-7-55-29-6--
--7-56+---94+--
+-54-54-5-+-8-8
758-5----+--+-9
-3++---+--7-6-3
5------+65--9-8
--9-8--6+562--8
-96--5-8--2++79
-------+8-3-475
8-----+6-6+-+7+
9+834--6+6-5+-9
---+-9698-877-5
6-++75-+-97-862

*** Life<FredkinCell> 26x24 ***

Generation = 0, Population = 77.
------------------------
-----0------------0-00--
-0----------------------
-----0-------0----------
-0----------0------0----
---------0---------00---
---0---0---00-----------
-0----0-------0-0-------
-----000------0---------
-0-0----------000-00----
---0--------------0---0-
-------0------0---------
------00----------------
---------0--------0-0---
------------------0--00-
---0----------0---------
---00----0-------------0
--------0------0----0---
---0--------------------
-----------0-0-------0--
--00--------------------
-0-----------0------0-0-
-------0------00---0----
-00-----------00--------
---0-----00-------------
---------------0---0----

Generation = 10, Population = 302.
---203320-1500--1-14--1-
-----1--1-21-01---2-----
---301-1-2126---11--1---
-0-------0022-43-32-1-10
-311--0-25--11-1--021323
15-1-4241-07-4-2--22-3--
1-00-130-0-6-1153-413---
5-2-1--33---3--0-02----0
2--5-3241-2-541-21-2---1
11-60--71---53-431--3--6
--131-0-0---1------1--30
----3-4-01--00-7--2-----
--1-24----3----12----1--
--10-4012-1-2-2-2062--4-
00-4--111---4-3311-1----
---423-1--3--2-----00--2
1--3-5-----3001000------
32-1-1-3-12431--1-220--1
-14-32---11-21220-------
031------1-0240-1-021---
--2-33-10--1-12----2--12
12-3--0--3---210-1--42--
-0-11-3012--10----4-1---
----4-2412--33-42-2-2-1-
-411-0-2-8---2212-3-00--
-3-12---3--2-22--21--134

Generation = 20, Population = 329.
2----64-4-----3--4-+1533
-32-1-22515-6-71-37-66--
---7123---3--2-2-10-343-
-325--46346+---4------33
1--34--54653345-3-4--5--
37-254--4-39--585--6---5
1-----56-1-+72266----2-4
-18-245---7-62-3-5-3-3-4
-52---4--17-+--33--431--
16----9---1383----6-75-9
0435-4-61-5---625-5524-3
3--36-7-0--9--1----74445
242-37+-55-2-34-----3---
46440-4--1-365-46--6-455
24----46-4--7----------2
4-273---22-2--3-12--52--
32-559-3434--13-2-22-133
5315--55-4--------8---33
154---24--3-84-3-3-4-52-
-5--313-------4-------6-
526775-2373--4-2---540--
6-5-23---7-44-53355483--
-4441--524-5-4-35-5---25
-+-15--5-4-2382-8----22-
76-1---54+3---8---4--4-5
36--36---32-28362-381439

*** Life<FredkinCell> 13x16 ***

Generation = 0, Population = 20.
----------------
-0-0---0----0--0
----0----0--0---
----------------
--------------0-
----------------
-----0----------
--------------0-
----------------
----0-------0---
-0---0-0-----0--
----------------
--00-----0------

Generation = 5, Population = 85.
---0------0020--
0-----00---0--1-
-0---0--0----2-0
0---------0---20
-0-01--0-0-0-02-
0--2--020-0-00--
-0---1-10-0012-0
--0000-0---00-20
00110---0----020
-0-0-------0--00
00-1----0---0---
000---0--0-0-0--
113--0-0------0-

Generation = 10, Population = 87.
--011--------211
-0-0---3-------5
0------3-114-5--
-0---1-----02---
0-334-11-12-2--1
-4-5--2--2---133
1-1---2---0-12-3
--1-2-----------
--2210-3----1---
22-20-1--00--012
--2-2-12-0---3-4
-001---0----1--1
-236--10122-1112

*** Life<FredkinCell> 13x8 ***

Generation = 0, Population = 44.
--------
-0-000--
-00-00-0
-------0
-0-000-0
-0----00
-00--0--
--0--000
-0--000-
-00---0-
-00-00-0
-0--0-00
-00---0-

Generation = 4, Population = 58.
--00----
0--11-11
-241-024
--11--11
14-1013-
-0--30--
3----231
2-211212
0--12---
1-2--320
---0-2-1
1--1410-
10---320

Generation = 8, Population = 46.
--2-4-3-
-3--5---
-----426
----0-5-
--1--33-
3-125--1
--1544-2
4043---2
0-21----
2--4---2
---2-4--
303-6-02
2--4-36-

*** Life<FredkinCell> 28x24 ***

Generation = 0, Population = 138.
------------------------
-----00----0-0-0-0------
-0---0-00---------------
-------000-0----00------
--00-----0--------0-0---
--0-------0-------0-----
--------00-----0--0-0---
--0----------0-0---0-0-0
-0-0---00----0--------00
----0-0--0-00---------00
----0---000-----00------
-0-0-----0-000--00------
----------0-----------00
-0-------------0--------
-----0------00--0-------
---0-0-----00-------0---
--------00-----0-----0-0
-0---0--0-----0--0--0---
-----0--00000---0-000-0-
----------0------0--00--
------0----000------0---
--------0------0--------
----------0---0----00---
------0----00------0----
--------------0-00------
---00-0-----00---0--0--0
-------------0----0----0
-0-------00-----0----0-0

Generation = 5, Population = 335.
0--2-20--20------010----
02---2--00-00--0-011--0-
-0--25-0-00-1-0-001-1--0
0-4-220-1-020--01--1-001
-203-210---200-0---00-0-
30--3--0-2------0402---3
031000-233-1--1122--0---
111---1----1--0-0----1-3
03201-0---12-1-0-----10-
----2101211123--4--1111-
210------11-1---10-101-0
----1-0-22--1-02-1-1002-
0202---2--00--22-111--1-
----2220--0--01----23--2
0-0--3-0---1010-203-0-1-
-00-0-012--2-1-2--1---0-
-0---111-------00--0--30
01011-2--22--1-0303--1-0
020-2-2-21--3-1--1----12
-0--0---10---21-211-----
---0-----0---2--3----2--
0-0----02--21-1-0--4-0-1
--000--02-0--4110-22----
0120-01213-120000-0-3-0-
0----0-0---111-020---102
1-21---23--032-1----0-13
0-000-00-11--2-1--202---
0--21--0-2-212-0-21--1-1

Generation = 10, Population = 304.
123403--221--2-21-4--1--
02----2--3111-3-0------1
---------2-1---21--01---
--61-2---4--110--41--1--
-3--4----4--320----1-2--
--526-312-25-4-----31---
--2-2---4443--223--0-011
3-42-04--532-4---11----4
2-3---1-52152322-50-13-6
---4-1--3--6--1-72---1--
--3--0---32----312262-3-
0-1-2---4-0--5---33-----
1---------0504-3--220233
0-0147-30--010-1----4--3
1-2------1-21--2----11-0
-1-----2--5413-31131----
---20-1----2----1--2-231
2-32-84-0----2---1-122--
-30----134-4-042---0-0-2
0--32-1-233--2----4-5-1-
-1-----1032-2----10-----
------112-0-3-2--007----
----3232410-352210--5342
0----04---02----34156-13
--1-123--23--2--5-----2-
3-2--2236100-4-----3--23
-------202-3--4-0-3-3321
---3-03---4--2-21---111-

*** Life<FredkinCell> 27x14 ***

Generation = 0, Population = 65.
--------------
-----------0--
-------0--0---
-----------0--
------0-------
--0---00-00---
--------------
----0-----0---
-0----------0-
--00-0---0--0-
--------------
--0---00-0----
------00------
-----0--0----0
---0-----0---0
--000--0-00--0
-------0-00--0
---------0---0
---00-0---0--0
--------------
----0---------
--0--0----0--0
-------0-0----
-00-----------
---------00---
---0----0-0---
-------0--0---

Generation = 3, Population = 183.
------0-0----0
-----000-10-0-
--0-01-02--0-0
-0-00---0--10-
0-001--110--00
---0-20303--10
---000-000-010
--1---011-100-
000-0-0-0-2---
11---12---0---
010--0-200-02-
-01-0201--011-
0---1-00-0---2
-0--20-1-0--01
-1--0-12-31-00
123----3-1-0--
00--2123111---
-----0----2--0
012----2-1--21
-----1--012-00
0-22--010----2
1-121-021-0---
-0--1--1001---
------001-----
0---0--1--1---
-0-00-1--010-0
--0-0101-01010

Generation = 6, Population = 181.
---001-2-0200-
0---0----43-00
--0-023022--10
0----1--11---0
0---2-121--03-
----0--4-6-02-
--1----3-12-2-
-1--0214-221--
---1-00---3--1
---2022-----3-
-200---313-1--
--2-------1---
00-0-00----2-3
-1-0510-0-0--4
---3-14------0
1---2313-2-1-2
00-0343414----
1122-3-0----0-
12311-030-0-2-
1----20202--11
---21-121--1--
-31-1---2---12
0-00---4--1--1
-3---23-10110-
--1---02-32202
--33-22021-0-1
-0-2-1-----31-

Generation = 9, Population = 189.
0-0--212-03010
-00-0231-7--3-
-01----0--1---
10-112332-1-01
3--03-4-10----
--2034-4--3--2
001200-3-42--2
-132--2533-212
--02-3----6--2
--350320--323-
031---26-4-121
-23--4-2-1-21-
-0-13-12-20--6
--115-310100--
-306-4-407---0
-------403-1--
----45--15----
-2----0--4--3-
--4-----0----2
202----3---0--
----1023--3--3
2-2440--30--2-
0-0--2---0-202
2-22----2-1-02
--40---2-43313
--34----2---2-
002-0--2-0-32-

Generation = 12, Population = 192.
123--2--0---23
0--133-4---1-1
1120------4414
2---4-66-1431-
-2---0542---31
--21---7-7-0--
--2211---430-2
123-23---3252-
13-3--3-3-9-25
--6-----31----
1621-0-7272--2
233---1-1-33--
4-2---------0-
--115--23-3--5
2---455--+-00-
--754-3-140-36
-22058451-3--1
-35---0-17733-
-35-30--1-0322
51-0-31----013
303--1-4303---
3-2-------31--
000--------512
--52-44--2----
20-1-112-56324
0------13-30--
3--4--33-----0

Generation = 15, Population = 187.
--632---1040--
-22243--0-426-
4-2-2-51---544
-0--4-77--7-4-
-32-4-855--24-
2-3---28-8-3-5
-3-3-135-7-152
-33--348----3-
132-0-4--0--3-
-37--73-62--5-
1--4--2--+---2
----1----1----
5--2-1-6-4-417
-32-523361-2-5
--1--65-0+2-10
-38--4-4-7--3-
12---856------
3684----4---4-
--6-402--20---
52-03-----5-4-
6143--4---33-3
-6-472-370-243
--1-44-4--5-25
-------1-323-4
---4214------5
-0-5223---40--
6--42543105---

Generation = 18, Population = 196.
-37--5-210--33
--33-6-4-+52--
42---65---4655
4-4-428-33-5-3
-4-271-583--44
2--1-43---6--6
3-4341381----2
1-342348---746
-43-0-506-+---
648-1--1-54--0
2-2-1-583-2332
3--1-433-----3
-4--3---3404--
-621--46-2-325
--165-5-----10
-3--6-4-18-2--
23--6----932--
49---5-3---4--
5474-1-6-3-3--
--314-4---6254
---6-356------
----+-0-73--76
--14---5-4---8
4--2---2-65-25
3--4-4---7----
-16633625-5-4-
6135---420--41

Generation = 21, Population = 189.
--854-4320614-
-54-4-65-+628-
5-3-27523-57--
7-53-29---98-4
-42------44--7
51-1---+3-6--7
--5352--49-37-
2---3----4-+--
----0-507-+-37
65+7--62-8-57-
----2--9----43
-561---4--4-3-
-5323327--0--8
06-19---8-6-3-
-82758--0-4511
-48---7----56-
26--99-6---3--
--9-2-2-68----
65--4--9--23-4
-24-75-6--9-5-
71-9265---35--
4--4--33---4--
0-2--446-4-5-9
---306-337--5-
4--5-74218-6--
0297--6-----5-
-2----6-53-5--

Generation = 24, Population = 184.
15-6---6----4-
--554--8-+62--
-532-+--6-8+-5
+-6463--5--847
---2--+7+-7--8
-24---3------8
----6--+59---3
3--535-+6--+--
---4-45-+-+0--
---83+6-+---+-
2846-169-+-4--
-6-21-653-5-65
-6-3--3-----39
--3--5-8+-7-65
--3+-+-8---62-
3--86--6--1677
3-54-----9-4--
7-+639-5-984-2
9594---+---6-4
------7704+46-
8--937--3--5--
5-2-----9-44-8
-2--55-9-7-629
-4--0----+6--5
-2--6--528-73-
--+7-4645-6---
8--5--9486664-

Generation = 27, Population = 166.
28-9-84--4-4-8
08-657-+----8-
-6--3+-4--8--8
--64-4-+------
44----+---7---
--7-47--4-----
-5--74--6+7-9-
4---66------76
-----5-4---14-
+-+-4+95-878-5
3-5---6-5-----
---325-84--67-
-74-54--5-16--
--44---9+-749-
-+4-9+---+6---
----9-9749-6--
4--5++----35--
---63+-6--85-5
-6-5---+-4-73-
---3---8--+-9-
9--+-8-+-155-7
-93-+-----758+
-5-75-6-0--63-
------455-7--6
7--597-6--9-46
2-+----5---2--
845----7969-7-

*** Life<FredkinCell> 10x7 ***

Generation = 0, Population = 17.
-------
---000-
-0-----
---0---
------0
-0--0-0
------0
-0---00
-------
--0000-

*** Life<FredkinCell> 27x14 ***

Generation = 0, Population = 88.
--------------
--00----0-----
----0-0------0
-0---0-0-0-0-0
-----0-----000
----0---0-----
-0-0---00-0---
-0--------0---
-----0--0-----
-0-000---0----
--------0--0--
--0---------00
---0---0-0---0
------00-----0
--0--0-0--00--
--0---000----0
-0--0---0----0
--0---0-----0-
-------------0
-0----------0-
-0-00-0-------
-----------00-
----0---0-0---
-000----------
--------0----0
--0------0-0-0
-0-0-----00-00

Generation = 4, Population = 175.
----202----11-
0-22--33----1-
1131---1-0-0--
-0-0---0--0---
-1---1-1---202
010--0---1--0-
-4-0-1-11---12
--1---10-3-10-
-2-002-1---2--
0---1-3--1----
-11303-32--111
211----1-10221
-0-00--2-0----
-0--202---1-3-
03-0---001----
21-01-2--31-11
0----3001--102
2-2----10-01-3
--1-11-101----
---3-011----11
1-0-12-10-0---
------0012-1--
01-00-0-012---
3----210----2-
------0---01-1
2-0--002---111
-1--0-0202202-

Generation = 8, Population = 183.
-2-1-0-0--1---
20--11--35023-
1-5----21----1
-012-5---0--3-
-2---32-5----6
1--0--311----1
0--0---1-4--53
-----152343--0
0---2---1---1-
--0--03-22---4
1--44-0--3--2-
--------111342
----2-04---00-
1---30-31--254
--3----4-1----
--2222-4----12
0-1--5-4-0---3
426000--4-11-4
-1-4-3-3251212
--4-02--11--33
3503-3-2-301--
--232-023--3--
0-1--0-02--1-1
-3--04140120-1
22---1-3--2-13
-2040103-23---
--2---04043--0

Generation = 12, Population = 188.
4401-----2-3--
202431----1454
-273-22---0--1
0----6----0-3-
0420---66--5--
33224-43-1-1-1
-----36-------
----1-7-5--12-
031-44-61--521
2111------4--4
--3567-4--3---
--24-2-2--254-
1--431--4232--
--3-3-45-123-5
-5-22--60-3---
-1434254--433-
---------22-33
5--2--1-5--1--
1--6345--6-6-6
--6444--221-43
75-33-----212-
3-353--4-32-5-
1----2-2---1-3
5--4-415-14--2
430-1------153
-324-5-7-----3
04-212--05-4-2

Generation = 16, Population = 188.
-82-33-01-54-3
--2-5-36-528-5
-2-4--44-40---
-14------1-2--
164-4-4685-7--
-7-6-15-12251-
--3-3-84-72--5
---02-----71-4
-4-44-5--12--1
--1223-4-384--
----671--432--
7-3--3-3-44986
----4-26--563-
-2-3-255-1-4-6
-76362--123-23
--5762-43-5-5-
-4----2----2-5
9--3--2---45--
---8---------+
2-7--6-6-6--5-
-----41--34163
53-74-2-3---6-
--243-224----5
-63---1533--4-
-70-2-244-43--
-5-41-17-38-53
46--13-72--5--

Generation = 20, Population = 203.
7-3--4-0--7547
-2--6----72-77
--96-6-4362--7
33-51-24--16-1
-66--6---72-4-
--3685--126--2
-63-5--66962-7
-4---39888933-
------78---962
-3-4-5-6-78627
3-66-----63-4-
81-82------9-+
2-2-4-28-5--36
5--73266-32---
---4-61+-45---
-1-+8--5-57--5
-41-2-----54--
+----74552657-
-2---75---794-
3-9-----3-3273
-8--641----185
----41---72474
352--53--37375
-7-54635358342
5-13-16--2-7--
-638--1-3---6-
576--5-9366-3-

Generation = 24, Population = 186.
9-5-3---------
4-45-24-77-9-9
---8---457---8
7--53--5---+52
--6--+4-+86-49
-+-7----2---34
48-599---9---9
--714---+9-4--
072+787-11--8-
4-26---+----39
53-7--57---38-
933+--3--4--+-
-227-2-8-9----
----53-8-427--
4------+--9--6
5-7-8-89-59-75
4-3-----56-6-6
+8---7--727-87
32-9-97-489+--
5-+--967-+--73
-8278-55-5-389
--77--4--74-7-
--3-4-4--47-8-
---55-3-5--362
-+1--1-45--8-4
4--9---9-7-4-9
6+6-----46855-

Generation = 28, Population = 179.
---435-25-8-5-
--4------93---
-5+-3--4----2-
8-------3--+73
2-625-8--9888+
-+--9-8-----3-
-93-+-+6-+--+-
-87--6-9++-648
-7-+----13--+-
444--66---97-+
-------777-4+4
-3-+5------+--
43--74-+-9--9-
6-5---8---49--
--+6965+1-+-4-
-5--8--+-7+-8-
5-7-6--6-8---8
---539-69---+9
4-4-7--8--+--+
-7+-5+88-+-384
9-38-697--9-8-
86+9-------4-6
---7--5---7--9
----5756--+4+-
-----3--7-8-7-
6--+773+-9+49+
8-8-562--7+766

*** Life<FredkinCell> 27x24 ***

Generation = 0, Population = 155.
------------------------
-0--00---------00----000
---0-000--0-0----------0
---0-----0----------00-0
----0-0--0--0----------0
------0--0--000--00--00-
-0----0-0---00-----0----
---0-000---0-----0------
-------0--00-0---0----0-
----0--0--------0-0-0-0-
------00------------000-
-0--0--------------00---
--0-------0--0---0-0---0
-----------0-0-----0----
---0----000-0-0------0-0
----00-0-------0-0-0----
-0--0-0--0-0------0-0-0-
--00-------0---0-0--0-00
--0------0-------0-0-0--
---0-00---0--00---------
--0-----------------0---
---0---------0-----0-0--
----00---00-------00--0-
----0---0-0-00--00--000-
-0--0---000--0--------0-
--0-------0-0--00-------
-0----------0------0----

Generation = 2, Population = 305.
---0-100--0-0----------1
--10--01-0---01--100---0
-1-2--02--0---0------0--
----0-01-2-0000000-1-200
-000002----1-01----0-0--
----110-02112-2--2--12--
---1---1000-0000-----110
-1-0--2-00--0-0012-100--
-0---1-0---0---------12-
-0010--0-0-1--0-01-02-0-
--0-01-010-0------1-2---
--010-11---0-1--01-000--
0--11-00-100--1--0-00-1-
-0---0-0-1-0-2------11--
--1-01-0202--10-010-1000
-----210-0-------0--0111
----2-00-002100-0101--20
00-2-010-01--01---0-2102
012---10-0-----1-20--001
-01002-1-----2--01-11100
0-0--1----1------0---0--
-0-00-0-0--01-100--21-00
-0-00-1--20110--10--012-
---1----2-00-0-12--02021
-00121-100-----1--0-1-2-
0---------------2-0-001-
---00---00--210--0-0-00-

Generation = 4, Population = 298.
---203-0-00-------------
00--2-2-0--0-2122---121-
--14---4-100110-1----2--
---2--2----0-2--0--3-4-2
1-0--2-0---1----10-2-00-
-11----104----201-2-3---
-1130---00-----000--131-
--0-1-----01-1-2---3---1
--000--2--220-01--00-12-
1--1--1-12------23-2212-
-00---2--0-0-11-0110-01-
11-3211-0--0----2--0---0
00--1-02--0---11--002--1
--011----1-2---01-1-----
--1-23--204-112-2-2-3020
0---123-101---00----03-3
110----20-----0023232--2
0--2--1------0-01-0--30-
0--11-1-0---0-01-200--03
-01--22-1-1-12202313112-
0-------1-10-1--1-1-1---
---0---0-0101--001--1-02
1-0--13-1---30-1-22--3-1
0--111---00-------0-2223
0-0-2-0-22---21--1211-2-
0-10----0-10-111----02--
-------------1-10-10---1

Generation = 6, Population = 325.
-1-4252-12---11-1----1--
2---4-2-011-1232-3--343-
-134---413-0-1-1-10--201
101--0220-----01-1-5-41-
-220-2--0-132-----1--021
0-3--3-1-4-3224232--541-
-11----2---111--2-0-1-31
-2-11--110-12-1--405-111
1102------24-1-1--2-11-0
---30--1---1-10-23--2141
-02---2222-2-33--31-3-1-
-31--133-002-200---00202
00-2----010202---202--2-
1-013111--0----0-011-2--
1--1--0---4----042-0-22-
--01--5--21-----1100----
3---3-------1-0-43---134
-----2--01-10-12------0-
2-2-31-12-112----2------
---------03-1----51-3-2-
0--1031-31300--11--111--
0-001-10-232-13-2---312-
---20--1141--2-----1253-
-113-110-0-1-11--202---3
0-2--302--2-----1-4---4-
2012--1-2--2---121-104--
1-1-1-0-21-1-3---03---1-

Generation = 8, Population = 296.
-1----201-100----0-0--0-
-23-614-2----2-23-0254-1
1156---4-3-0230--32--403
----2----2-013-1----16-3
22-20232-----020-2-30---
0-----0--435---2543-5-3-
---31---0-131---4---33-1
02--32-1-2-3-11--6-----3
-304110----6--11--421320
-0-321--2-01--01431--36-
1-20-222-21--5-0-33-30-1
--1---5---24-42--------4
-----00---040--1-22-3---
-----13--2-21-1--23---1-
3-31-3--20412--06--03---
-121147-341----03---2-1-
3-2030-31-22------343-5-
--1------3-1--1--1-0--2-
----5-13-11341---4--1-14
0-31033----0-43---35522-
-11-2--------2---1--1--0
--20-1----322--14-------
-2-40-----12-----3-----1
0---3--2-21-1-32----2-43
2----30--2210-2-32-230--
-------14-24-3-3-113-63-
----10-----3-----0-1----

Generation = 10, Population = 316.
1-0-45--123-2--1-01-0--2
2-3-8--2413-3-5-5--4-433
337--1-42--0---2----160-
20--40332--0-513--1----5
--2---5---342-2--4-521--
-13-14---6-5----7--1563-
02---0-200-33----221---3
-2-25---22--331-1--70--3
-5--1------6-2-102-2--4-
1---4-3-2-----01--3----2
----2----43--74-2-315--3
25-43-5-0-4414---------6
---32-2-1204-231----3143
-0---3----0-3---1--22-11
31---3-2-0-3---0-3-2-3--
23----9---31-02--2112-3-
324--02---2-3--1--56-2-6
-1--0--10-1-1-1--31-4---
31217-1-2--34-1--6--32--
-2----321-42-65-3-5--2-1
133-4--0-1-104----2231-0
122-2-2-0--4-1-3-2-3-1-2
2--40---1-32--122-------
2-23--2--2313-3----24--3
422-35---2-3-3-252-2-05-
4---101361-6--334---165-
2-223--1--0-441222-31---

Generation = 12, Population = 318.
-2-5---0143--2112--20---
24----5--3---35354-45--3
5-7----64402--24-4--380-
-0--6---------33-2---6--
3-4-------5-414-2--54---
--3034-3----3353764--850
24--22----133----4-3-545
1--4--2122-43-3--70922--
27151222014-24--2454-5--
----4-3-22-2030-54-4-4-4
-120---3-63----22--1-12-
---4--7-2166-6--4-111306
1-1------2-4-23----3--65
---23--3--2---2---42----
-3-14---20--2220--423341
4-21-5-145-1-24-4----3-3
---2422-222--1-15-------
1-33-3-3-4----33231--5-4
-1-17-342-234-1-0-1-3-36
1-4204-4----1----------3
-33164-2----060---24-30-
342----1--3443--6-1553--
22-----3353-3-14----4-32
----------51------226---
--2-3-2322-3133--454-0-0
--1-321-61------63----5-
---231132---643-4--51---

*** Life<FredkinCell> 24x15 ***

Generation = 0, Population = 137.
---------------
-0000----00-000
-00000---0---0-
-00-------0--0-
--0--------0000
-0--00--0--0---
---000-0----00-
-0---0----00000
-00---000-0---0
--0--0--0------
-----0---0--0-0
----000-0---00-
-0-0-00-00-0-0-
--00000---0--00
-----0----0-0--
-0--0--0-0-00--
-0--000-00----0
---000---0----0
--0--0--0-0-000
----0-00-00-0-0
-0-0--0--0--0--
-0--------00-00
-0-0-0--0----0-
-000-0---00-00-

Generation = 9, Population = 176.
05354---1---446
----1-5-4---1--
-4--6-2-431-1-0
2---252--20-32-
2--1--1---21-32
-1140--5--34--6
-1--33-1-205---
-71--31--4---3-
-31-01221-4-323
--5222---001---
--3--11-3--07--
--3-22-320--1--
----2---2302-4-
2--7203--7121-3
01--31-2106--2-
03-12-0-2----4-
1----31---254-4
-----55-1-331--
21-1---0-01-0--
--2--2--20-344-
-5-1222--22-5--
--1--2----230--
13450-041-22112
----4------2-0-

*** Life<FredkinCell> 23x22 ***

Generation = 0, Population = 118.
----------------------
-----------0------0---
--00-0-----00-----0--0
----0---0-0--0----000-
---00-0-------0-0-0-0-
-0-----------0--------
----000---0-----------
-0-000----0-------00--
-----0--0-----0------0
-0----00-0-0--0---00--
-00---0---00------0-0-
------0---0------0----
-------------0---0----
--0--000-0---------00-
--------0---00-0-0--0-
-----0--00----0--0--0-
-0-0--00-------00---0-
---0-----0------0--0--
---0---00-0000----0---
--0-----0-----0-------
---0-0-------00---0---
--0--0---0--0-0----0--
----0-0----000-0------

*** Life<FredkinCell> 22x9 ***

Generation = 0, Population = 58.
---------
-0---000-
----0--0-
-0----0-0
-0--0----
--0-0----
------0--
-----0---
--0---0-0
-000-0-0-
---00----
----0----
--0-0-0--
--0---0-0
-0---00-0
------000
-------0-
--00---0-
--00--00-
--0-0-00-
-00-00--0
--0----0-
